[gd_scene load_steps=7 format=2]

[ext_resource path="res://Circle.gdshader" type="Shader" id=1]
[ext_resource path="res://CircleBody.gd" type="Script" id=2]

[sub_resource type="ShaderMaterial" id=9]
resource_local_to_scene = true
shader = ExtResource( 1 )
shader_param/color = Vector3( 1, 1, 1 )
shader_param/scale = Vector2( 7, 7 )

[sub_resource type="CircleShape2D" id=8]
resource_local_to_scene = true
radius = 12.0

[sub_resource type="ProxyTexture" id=3]

[sub_resource type="CircleShape2D" id=10]
radius = 34.5574

[node name="CircleBody" type="RigidBody2D" groups=["Circle"]]
material = SubResource( 9 )
scale = Vector2( 1.1, 1.1 )
contacts_reported = 1
contact_monitor = true
can_sleep = false
script = ExtResource( 2 )

[node name="CollisionShape2D" type="CollisionShape2D" parent="."]
use_parent_material = true
shape = SubResource( 8 )

[node name="Circle" type="Polygon2D" parent="CollisionShape2D"]
use_parent_material = true
texture = SubResource( 3 )
polygon = PoolVector2Array( -12, -12, 12, -12, 12, 12, -12, 12 )

[node name="Area2D" type="Area2D" parent="CollisionShape2D"]
space_override = 1
gravity_point = true
gravity_vec = Vector2( 0, 0 )
gravity = 85.0

[node name="CollisionShape2D" type="CollisionShape2D" parent="CollisionShape2D/Area2D"]
shape = SubResource( 10 )

[connection signal="body_entered" from="." to="." method="_on_CircleBody_body_entered"]
[connection signal="body_exited" from="." to="." method="_on_CircleBody_body_exited"]
